{
	"compilerOptions": {
		"source-path": [
			"src",
			"vendor"
		],
		"output": "bin/FXCalc.swf",
		"default-frame-rate": 60,
		"default-background-color": "#002B36",
		"default-size": {
			"width": 720,
			"height": 1280
		},
		"target-player": "25.0",
		"accessible": false,
		"advanced-telemetry": true,
		"benchmark": false,
		"optimize": true,
		"omit-trace-statements": true,
		"show-unused-type-selector-warnings": true,
		"strict": true,
		"use-network": true,
		"use-resource-bundle-metadata": true,
		"warnings": true,
		"verbose-stacktraces": false,
		"static-link-runtime-shared-libraries": true,
		"define": [
			{
				"name": "CONFIG::android",
				"value": true
			},
			{
				"name": "CONFIG::ios",
				"value": false
			},
			{
				"name": "CONFIG::web",
				"value": false
			},
			{
				"name": "CONFIG::appName",
				"value": "'FXCalc'"
			},
			{
				"name": "CONFIG::appVersion",
				"value": "'0.3.8'"
			},
			{
				"name": "CONFIG::appBuildTime",
				"value": 1436852700000
			}
		],
		"library-path": [
			"lib/feathers.swc",
			"lib/starling.swc"
		],
		"include-libraries": [
			"lib/fonts.swc"
		]
	},
	"files": [
		"src/FXCalc.as"
	],
	"config": "airmobile",
	"application": "application.xml",
	"additionalOptions": "-keep-as3-metadata+=Enum"
}