{
	//{ region RazorTheme
	
	"font-size-tiny": 22,
	"font-size-small": 24,
	"font-size-regular": 28,
	"font-size-large": 32,
	"font-size-extra-large": 48,
	
	//} endregion
	
	//{ region FXCalcRazorTheme
	
	"keypad-fun-main-height-ratio": 0.90254, // 213/236
	"keypad-fun-button-font-size-sub1": 24,
	"keypad-fun-button-font-size-sub2": 20
	
	//} endregion
}
